{
    "code": 0,
    "endIndex": 0,
    "intIds": [],
    "list": [
        {
            "data": "{}",
            "create_time": "2024-12-23 09:43:35",
            "user_code": "admin(管理员)",
            "method_name": "登录",
            "ip": "10.50.11.144",
            "remark": "登录日志",
            "id": "8ab28b1093f12eff0193f12f17d00004",
            "url": "/pub/login/submit"
        },
        {
            "data": "{\"sysFunction.spread\":[\"1\"],\"sysFunction.funcName\":[\"添加\"],\"sysFunction.id\":[\"sys_func_add\"],\"sysFunction.funcType\":[\"1\"],\"sysFunction.linkPage\":[\"/portal/core/sysFunc/save\"],\"sysFunction.orderNo\":[\"1\"],\"sysFunction.isWindowOpen\":[\"0\"],\"_jfinal_token\":[\"2953969186890877223\"],\"sysFunction.parentCode\":[\"sys_func_manager\"],\"sysFunction.icon\":[\"\"],\"sysFunction.isStop\":[\"0\"]}",
            "create_time": "2024-12-19 17:41:53",
            "user_code": "admin(管理员)",
            "method_name": "修改",
            "ip": "172.16.20.23",
            "remark": "操作日志(功能管理)",
            "id": "2c90949793dd798d0193de4b8b7d00fb",
            "url": "/portal/core/sysFunc/update"
        },
        {
            "data": "{}",
            "create_time": "2024-12-19 17:41:26",
            "user_code": "admin(管理员)",
            "method_name": "功能管理",
            "ip": "172.16.20.23",
            "remark": "操作日志(系统管理)",
            "id": "2c90949793dd798d0193de4b236900ef",
            "url": "/portal/core/sysFunc"
        },
        {
            "data": "{}",
            "create_time": "2024-12-19 14:09:31",
            "user_code": "admin(管理员)",
            "method_name": "自定义SQL",
            "ip": "172.16.20.23",
            "remark": "操作日志(系统管理)",
            "id": "2c90949793dd798d0193dd891f0300ca",
            "url": "/portal/form/sql"
        },
        {
            "data": "{}",
            "create_time": "2024-12-19 14:08:54",
            "user_code": "admin(管理员)",
            "method_name": "在线表单",
            "ip": "172.16.20.23",
            "remark": "操作日志(网站后台管理)",
            "id": "2c90949793dd798d0193dd888e5800c0",
            "url": "/portal/form/view"
        },
        {
            "data": "{}",
            "create_time": "2024-12-19 14:08:26",
            "user_code": "admin(管理员)",
            "method_name": "在线表单",
            "ip": "172.16.20.23",
            "remark": "操作日志(网站后台管理)",
            "id": "2c90949793dd798d0193dd88228200b9",
            "url": "/portal/form/view"
        },
        {
            "data": "{}",
            "create_time": "2024-12-19 14:06:29",
            "user_code": "admin(管理员)",
            "method_name": "部门管理",
            "ip": "172.16.20.23",
            "remark": "操作日志(系统管理)",
            "id": "2c90949793dd798d0193dd865a6b0096",
            "url": "/portal/core/sysOrg"
        }
    ],
    "longIds": [],
    "msg": "获取成功",
    "pageNumber": 1,
    "pageSize": 7,
    "startIndex": 0,
    "total": 56,
    "totalCount": 56,
    "totalPage": 8
}